[2010-11-16 23:22:50][3][UNIX] starting...
fetching proxylist from 'http://worldofproxy.com/getx_GVGM4SR5pDVYNoe7_0__2___.html'...  loaded 16 proxies.
fetching proxylist from 'http://worldofproxy.com/getx_GVGM4SR5pDVYNoe7_0__2___.html'...  loaded 16 proxies.
fetching proxylist from 'http://worldofproxy.com/getx_GVGM4SR5pDVYNoe7_0__2___.html'...  loaded 16 proxies.
fetching proxylist from 'http://worldofproxy.com/getx_GVGM4SR5pDVYNoe7_0__2___.html'...  loaded 16 proxies.
fetching proxylist from 'http://worldofproxy.com/getx_GVGM4SR5pDVYNoe7_0__2___.html'...  loaded 16 proxies.
fetching proxylist from 'http://worldofproxy.com/getx_GVGM4SR5pDVYNoe7_0__2___.html'...  loaded 16 proxies.
fetching proxylist from 'http://worldofproxy.com/getx_GVGM4SR5pDVYNoe7_0__2___.html'...  loaded 16 proxies.
fetching proxylist from 'http://worldofproxy.com/getx_GVGM4SR5pDVYNoe7_0__2___.html'...  loaded 16 proxies.
fetching proxylist from 'http://worldofproxy.com/getx_GVGM4SR5pDVYNoe7_0__2___.html'...  loaded 16 proxies.
loading new RSS 'http://welsewool.livejournal.com/data/rss' ...
2> skiped: ой прет такое (Thu, 13 May 2010 14:07:09 GMT)
3> skiped: хочу (Thu, 13 May 2010 14:41:51 GMT)
4> skiped:  (Wed, 19 May 2010 11:51:08 GMT)
5> skiped: когда роме скучно он рисует гиф =) (Fri, 21 May 2010 08:05:53 GMT)
6> skiped: лики (Sun, 30 May 2010 20:52:31 GMT)
7> skiped: люблю тебя, мой друг ромашка! (Thu, 10 Jun 2010 12:55:21 GMT)
8> skiped: в карандашные контуры (Fri, 16 Jul 2010 12:15:53 GMT)
9> skiped: привязки (Thu, 29 Jul 2010 08:03:32 GMT)
10> skiped: dreamweaver иногда лошарит (Fri, 06 Aug 2010 12:58:47 GMT)
11> skiped: выравнивание блочного списка (Fri, 13 Aug 2010 11:01:38 GMT)
12> skiped: Dub FX вновь радует (Fri, 13 Aug 2010 12:04:46 GMT)
13> skiped: самая гениальная диаграмма (Thu, 26 Aug 2010 14:59:15 GMT)
14> skiped: no comments (Thu, 02 Sep 2010 07:58:01 GMT)
15> skiped: ненуашо =) (Thu, 02 Sep 2010 11:06:40 GMT)
16> skiped:  (Wed, 08 Sep 2010 12:49:15 GMT)
17> skiped: правда (Thu, 09 Sep 2010 14:23:34 GMT)
18> skiped:  (Tue, 21 Sep 2010 14:40:27 GMT)
19> skiped: ПЕРЕПОСТ истории чувака с питера. я худею (Wed, 22 Sep 2010 07:34:43 GMT)
20> skiped: Съебись нахуй (Tue, 28 Sep 2010 14:07:34 GMT)
21> skiped: =) (Thu, 14 Oct 2010 12:44:51 GMT)
22> skiped: информация  (Mon, 18 Oct 2010 08:33:00 GMT)
23> skiped: фонты (Fri, 29 Oct 2010 10:43:18 GMT)
24> skiped: сайт плагиаторов  (Wed, 10 Nov 2010 11:59:44 GMT)
25> skiped: ужаснейшее видео. засекайте кто сколько выдержит  (Thu, 11 Nov 2010 12:39:20 GMT)
26> skiped: Мега HOWTO сайт  (Mon, 15 Nov 2010 17:59:12 GMT)
loading new RSS 'http://vladchernij.livejournal.com/data/rss' ...
1> skiped: Прекрасное далеко, не будь ко мне жестоко (Mon, 06 Apr 2009 10:26:59 GMT)
2> skiped: Тема дня: Хватай и беги (Mon, 06 Apr 2009 10:49:55 GMT)
3> skiped: Есть идея (Tue, 07 Apr 2009 13:26:35 GMT)
4> skiped: Что делать? (Wed, 08 Apr 2009 14:37:57 GMT)
5> skiped: Гендерна рівність (Sun, 12 Apr 2009 17:32:16 GMT)
6> skiped: Скоро Пасха (Sun, 12 Apr 2009 17:39:06 GMT)
7> skiped: immortal beloved (Tue, 28 Apr 2009 10:35:06 GMT)
8> skiped: Рахую курчат (Wed, 06 May 2009 19:38:12 GMT)
9> skiped: Перемога (Fri, 08 May 2009 22:24:14 GMT)
10> skiped: Так-с (Tue, 12 May 2009 11:32:57 GMT)
11> skiped: З книги "Ікона. Стів Джобс" (Thu, 14 May 2009 16:50:17 GMT)
12> skiped: Истина (Mon, 01 Jun 2009 20:51:33 GMT)
13> skiped: Джинджер и Фред (Tue, 09 Jun 2009 21:20:20 GMT)
14> skiped: Титанік (Mon, 22 Jun 2009 08:10:49 GMT)
15> skiped: Студентки-першокурсниці (Thu, 03 Sep 2009 11:22:58 GMT)
16> skiped: Гостья из будущего (Wed, 09 Sep 2009 06:09:51 GMT)
17> skiped: Top (Sun, 20 Sep 2009 18:43:24 GMT)
18> skiped: Хочу (Mon, 19 Oct 2009 16:59:16 GMT)
19> skiped: Дихтарятко (Fri, 27 Aug 2010 21:51:24 GMT)
20> skiped: Тирено (Sun, 12 Sep 2010 10:54:11 GMT)
21> skiped: 11 Вересня (Sun, 12 Sep 2010 11:17:02 GMT)
loading new RSS 'http://vayamba.livejournal.com/data/rss' ...
1> skiped: Выходные в крыму!!! (Tue, 29 Jun 2010 05:45:05 GMT)
2> skiped:  (Fri, 02 Jul 2010 13:57:12 GMT)
3> skiped: музей (Fri, 02 Jul 2010 14:08:33 GMT)
4> skiped: Маленькие секреты жизни (Sat, 10 Jul 2010 16:20:05 GMT)
5> skiped:  (Sat, 10 Jul 2010 19:27:58 GMT)
6> skiped: Дорога возникает под шагами идущего (Sat, 10 Jul 2010 21:06:45 GMT)
7> skiped: понравилась картинка (Wed, 28 Jul 2010 19:35:30 GMT)
8> skiped:  (Wed, 11 Aug 2010 20:40:12 GMT)
9> skiped: сайт (Fri, 13 Aug 2010 08:06:48 GMT)
10> skiped: ОТЛИЧНАЯ ПЕСЕНКА И ВИДЕО :) (Fri, 27 Aug 2010 14:13:00 GMT)
11> skiped: привет-осень, пока-лето! (Fri, 27 Aug 2010 15:02:32 GMT)
12> skiped: jazz in kiev (Mon, 30 Aug 2010 11:03:52 GMT)
13> skiped: освобождение от отжившего (Mon, 30 Aug 2010 13:35:45 GMT)
14> skiped: природа дает силу (Tue, 31 Aug 2010 14:06:09 GMT)
15> skiped: ... (Thu, 02 Sep 2010 17:43:08 GMT)
16> skiped: любовь, как случайная ... (Fri, 03 Sep 2010 13:40:17 GMT)
17> skiped: все очень просто!!! (Tue, 07 Sep 2010 12:11:41 GMT)
18> skiped: В Киеве пройдет выставка «Мир динозавров» (Tue, 07 Sep 2010 17:43:42 GMT)
19> skiped: куплю на дачу (Sun, 12 Sep 2010 06:35:14 GMT)
20> skiped: Шри Чинмой (Mon, 04 Oct 2010 15:26:33 GMT)
21> skiped: личность (Wed, 13 Oct 2010 08:58:49 GMT)
LiveJournal login (lefteriszr, 5hktdbq)
LiveJournal loading cache from '/mnt/sdb1/www/antex.name/projects/rssblogposter/cache/LiveJournal_lefteriszr.dat'
LiveJournal [try 1] posting news ''
LiveJournal skiped
23> skiped: Faces (Wed, 10 Nov 2010 19:12:50 GMT)
24> skiped: Г.Гладков ,Э.Жерздева «Дуэт Короля и Принцессы» (Wed, 10 Nov 2010 19:41:49 GMT)
25> skiped: Zaz, la toy session : je veux (Sat, 13 Nov 2010 07:33:31 GMT)
loading new RSS 'http://webassai.livejournal.com/data/rss' ...
1> skiped:  (Sun, 09 Jul 2006 14:29:23 GMT)
2> skiped: LiRu (Mon, 16 Oct 2006 11:42:36 GMT)
3> skiped: 4ый этаж :) (Thu, 23 Aug 2007 09:58:28 GMT)
4> skiped: We R On Finish Line:) (Sun, 14 Dec 2008 13:00:49 GMT)
5> skiped: Centr - Ночь (Sun, 14 Dec 2008 13:13:43 GMT)
6> skiped: Каста - Радиосигналы (Sun, 14 Dec 2008 20:09:49 GMT)
7> skiped: Каста - Радиосигналы (Sun, 14 Dec 2008 21:27:30 GMT)
8> skiped: АК47 - Витя АК (Mon, 15 Dec 2008 17:56:36 GMT)
9> skiped: Гарик Мартиросян - Караоке'08 (Tue, 16 Dec 2008 11:42:24 GMT)
10> skiped: Cat'S (Wed, 24 Dec 2008 19:59:38 GMT)
11> skiped: La Coka Nostra - I'm An American (Fri, 26 Dec 2008 13:36:29 GMT)
12> skiped: Happy New Year! :) (Wed, 31 Dec 2008 19:32:46 GMT)
13> skiped: Nokia E71 (Tue, 20 Jan 2009 16:49:18 GMT)
14> skiped: UTEL (UA 3G) (Tue, 20 Jan 2009 16:55:29 GMT)
15> skiped: 3G (Tue, 20 Jan 2009 16:59:46 GMT)
16> skiped: Animal Matrix (Thu, 22 Jan 2009 12:19:09 GMT)
17> skiped: 28 (Fri, 30 Jan 2009 22:13:30 GMT)
18> skiped: Cell Phone Reunion (Mon, 16 Feb 2009 14:36:21 GMT)
19> skiped: Крестная Семья & Каста - Номерок [Video] (Tue, 24 Mar 2009 15:31:56 GMT)
20> skiped: Доктор медицинских наук Пауло Убиратан (Wed, 10 Mar 2010 21:36:58 GMT)
21> skiped: Игры на свежем воздухе... (Tue, 26 Oct 2010 21:31:34 GMT)
